{
	"responseHeader": {
		"response": "success",
		"statusCode": "0000"
	},
	"responseFoods": [
					  {
					  "id": "vnievbnisuevnioesnvi",
					  "name": "ข้าวผัดไก่",
					  "price": 35,
					  "count": 15,
					  "imageUrl": "https://www.thai-thaifood.com/bilder/1654c.jpg"
					  },
					  {
					  "id": "asjfniajsfijansfiasf",
					  "name": "ไก่",
					  "price": 400,
					  "count": 20,
					  "imageUrl": "https://img.kapook.com/u/2017/surauch/cooking/c1_27.jpg"
					  },
					  {
					  "id": "winfbiueb837ubfvuegv",
					  "name": "หมู",
					  "price": 325,
					  "count": 25,
					  "imageUrl": "https://food.mthai.com/app/uploads/2018/03/Crispy-Chashu.jpg"
					  },
					  {
					  "id": "aslnjjwfawfawfg",
					  "name": "ผักากาดดอง",
					  "price": 50,
					  "count": 30,
					  "imageUrl": "https://sukkaphap-d.com/wp-content/uploads/2018/02/Green-cabbage-Pickle2.jpg"
					  }
					  ]
}
